imax    *     number of categories
jmax    *     number of samples minus one
kmax    *     number of nuisance parameters
-------------------------------------------------------------------------------
shapes * * eq0b_eq2j_900_1200_shapes.root $CHANNEL/$PROCESS $CHANNEL/$PROCESS_$SYSTEMATIC

bin	 Signal	DoubleMu	SingleMu	
observation	434	59	70	
-------------------------------------------------------------------------------
bin	Signal	Signal	Signal	Signal	DoubleMu	DoubleMu	SingleMu	SingleMu	

process	 VBF	Zinv	Ttw	Qcd	VBF	Ewk	VBF	Ewk	
process	 0	1	2	3	0	1	0	1	
rate	 0.0996768474579	114.053964615	112.892998695	122.225536346	1e-12	25.3771266937	1e-12	35.2242469788	
-------------------------------------------------------------------------------
ElectronSFWeight shape	1	-	-	-	1	-	1	-	
bosonPtEwkWeight shape	1	1	1	1	1	1	1	1	
bosonPtQcdWeight shape	1	1	1	1	1	1	1	1	
bosonPtWeight shape	1	1	1	1	1	1	1	1	
bsfCFbWeight shape	1	-	-	-	1	-	1	-	
bsfCFcWeight shape	1	-	-	-	1	-	1	-	
bsfCFlWeight shape	1	-	-	-	1	-	1	-	
bsfLightWeight shape	1	1	1	1	1	1	1	1	
bsfWeight shape	1	1	1	1	1	1	1	1	
jecWeight shape	-	1	1	1	-	1	-	1	
lumiSyst lnN	1.026	1.06	-	-	1.026	1.06	1.026	1.06	
muonSfWeight shape	1	1	1	1	1	1	1	1	
muonTrackWeight shape	1	-	-	-	1	-	1	-	
nIsrWeight shape	1	1	1	1	1	1	1	1	
photonSFWeight shape	1	1	1	1	1	1	1	1	
photonTriggerWeight shape	1	1	1	1	1	1	1	1	
puWeight shape	1	1	1	1	1	1	1	1	
triggerWeight shape	1	1	1	1	1	1	1	1	
xsWeightTt shape	1	1	1	1	1	1	1	1	
xsWeightW shape	1	1	1	1	1	1	1	1	
